...................
----------------------------------------------------------------------
Ran 19 tests in 0.002s

OK
Name               Stmts   Miss Branch BrPart  Cover   Missing
--------------------------------------------------------------
Diplomacy.py          74      0     42      0   100%
TestDiplomacy.py      78      0      0      0   100%
--------------------------------------------------------------
TOTAL                152      0     42      0   100%
