...........................
----------------------------------------------------------------------
Ran 27 tests in 0.007s

OK
Name               Stmts   Miss Branch BrPart  Cover   Missing
--------------------------------------------------------------
Diplomacy.py         115      0     60      0   100%
TestDiplomacy.py     128      0      0      0   100%
--------------------------------------------------------------
TOTAL                243      0     60      0   100%
