...................
----------------------------------------------------------------------
Ran 19 tests in 0.001s

OK
Name               Stmts   Miss Branch BrPart  Cover   Missing
--------------------------------------------------------------
Diplomacy.py          78      1     52      2    98%   64, 79->82
TestDiplomacy.py      74      0      2      1    99%   153->exit
--------------------------------------------------------------
TOTAL                152      1     54      3    98%
