..................................
----------------------------------------------------------------------
Ran 34 tests in 0.002s

OK
Name               Stmts   Miss Branch BrPart  Cover   Missing
--------------------------------------------------------------
Diplomacy.py          52      0     38      0   100%
TestDiplomacy.py     127      0      0      0   100%
--------------------------------------------------------------
TOTAL                179      0     38      0   100%
